{
  "code": "0",
  "result": {
    "page": 1,
    "page_size": 10,
    "total_count": 60,
    "page_count": 6,
    "data": [
      {
        "key": "iS",
        "id": "uJr",
        "name": "Steven Thompson",
        "lendNum": 201801011231,
        "lendAmount": "1800000",
        "status": "1",
        "lendPeriods": "24",
        "lendInterest": "1",
        "lendPayDate": "2018-03-16",
        "lendRate": 1.86
      },
      {
        "key": "o",
        "id": "]t&",
        "name": "Mark Anderson",
        "lendNum": 201801011232,
        "lendAmount": "1000000",
        "status": "1",
        "lendPeriods": "60",
        "lendInterest": "1",
        "lendPayDate": "2018-08-24",
        "lendRate": 1.41
      },
      {
        "key": "PdJ",
        "id": "nGRX",
        "name": "Elizabeth Taylor",
        "lendNum": 201801011233,
        "lendAmount": "1000000",
        "status": "1",
        "lendPeriods": "12",
        "lendInterest": "1",
        "lendPayDate": "2018-12-11",
        "lendRate": 1.83
      },
      {
        "key": "(B",
        "id": "^La",
        "name": "Anthony Lee",
        "lendNum": 201801011234,
        "lendAmount": "1000000",
        "status": "1",
        "lendPeriods": "24",
        "lendInterest": "1",
        "lendPayDate": "2018-02-02",
        "lendRate": 0.68
      },
      {
        "key": "CS",
        "id": "vL",
        "name": "Jeffrey Clark",
        "lendNum": 201801011235,
        "lendAmount": "1000000",
        "status": "1",
        "lendPeriods": "48",
        "lendInterest": "1",
        "lendPayDate": "2018-11-01",
        "lendRate": 1.38
      },
      {
        "key": "qI",
        "id": "L",
        "name": "Sharon Wilson",
        "lendNum": 201801011236,
        "lendAmount": "300000",
        "status": "1",
        "lendPeriods": "12",
        "lendInterest": "1",
        "lendPayDate": "2018-03-08",
        "lendRate": 0.97
      },
      {
        "key": "$ka7",
        "id": "LhJ",
        "name": "Richard Harris",
        "lendNum": 201801011237,
        "lendAmount": "500000",
        "status": "1",
        "lendPeriods": "60",
        "lendInterest": "1",
        "lendPayDate": "2018-12-14",
        "lendRate": 1.34
      },
      {
        "key": "d",
        "id": "EqkO",
        "name": "Richard Lopez",
        "lendNum": 201801011238,
        "lendAmount": "1000000",
        "status": "1",
        "lendPeriods": "48",
        "lendInterest": "1",
        "lendPayDate": "2018-04-02",
        "lendRate": 0.58
      },
      {
        "key": "odN!",
        "id": "[xH",
        "name": "Karen Taylor",
        "lendNum": 201801011239,
        "lendAmount": "500000",
        "status": "1",
        "lendPeriods": "36",
        "lendInterest": "1",
        "lendPayDate": "2018-03-03",
        "lendRate": 1.06
      },
      {
        "key": "A6D",
        "id": "G7",
        "name": "Brian Thomas",
        "lendNum": 201801011240,
        "lendAmount": "1500000",
        "status": "1",
        "lendPeriods": "60",
        "lendInterest": "1",
        "lendPayDate": "2018-08-14",
        "lendRate": 1.88
      }
    ]
  }
}