{
    "code": "0",
    "result": {
      "page": 1,
      "page_size": 10,
      "total_count": 60,
      "page_count": 6,
      "data": [
        {
          "key": "eo",
          "id": "eS[e",
          "memberName": "任芳",
          "memberAccount": "Mark Jones",
          "memberStatus": "3",
          "memberPassword": "********",
          "memberEmail": "m.yfslvxodbi@jauzsq.aq",
          "memberRegister": "1988-07-12"
        },
        {
          "key": "Ql",
          "id": "7L)",
          "memberName": "陈静",
          "memberAccount": "Nancy Lopez",
          "memberStatus": "2",
          "memberPassword": "********",
          "memberEmail": "o.nlphjulhw@fcmbfgv.bf",
          "memberRegister": "1984-11-12"
        },
        {
          "key": "KX)",
          "id": "TP",
          "memberName": "孔刚",
          "memberAccount": "Edward Thomas",
          "memberStatus": "1",
          "memberPassword": "********",
          "memberEmail": "g.xgag@rbio.tv",
          "memberRegister": "1981-01-14"
        },
        {
          "key": "%Z",
          "id": "E",
          "memberName": "金明",
          "memberAccount": "Deborah Brown",
          "memberStatus": "2",
          "memberPassword": "********",
          "memberEmail": "y.hfyvc@qvxrqn.ly",
          "memberRegister": "1979-06-06"
        },
        {
          "key": "d",
          "id": "AQ]O",
          "memberName": "邓芳",
          "memberAccount": "Charles Lewis",
          "memberStatus": "2",
          "memberPassword": "********",
          "memberEmail": "m.emsphfr@rofbs.na",
          "memberRegister": "1989-09-09"
        },
        {
          "key": "O&a",
          "id": "iK&",
          "memberName": "蔡超",
          "memberAccount": "Nancy Allen",
          "memberStatus": "3",
          "memberPassword": "********",
          "memberEmail": "i.mkqcy@orzvm.gb",
          "memberRegister": "2014-11-10"
        },
        {
          "key": "$",
          "id": "uw51",
          "memberName": "史芳",
          "memberAccount": "Melissa Wilson",
          "memberStatus": "2",
          "memberPassword": "********",
          "memberEmail": "s.ghywm@muwr.sa",
          "memberRegister": "2000-02-28"
        },
        {
          "key": "7T",
          "id": "fJlB",
          "memberName": "陈桂英",
          "memberAccount": "Maria Brown",
          "memberStatus": "2",
          "memberPassword": "********",
          "memberEmail": "p.fiqio@cxpn.hr",
          "memberRegister": "1999-03-31"
        },
        {
          "key": "QLHb",
          "id": "8lLo",
          "memberName": "江敏",
          "memberAccount": "Sharon Hernandez",
          "memberStatus": "2",
          "memberPassword": "********",
          "memberEmail": "u.oxpdlyion@uvqk.ye",
          "memberRegister": "2016-10-03"
        },
        {
          "key": "VgcS",
          "id": "VO",
          "memberName": "高洋",
          "memberAccount": "Jennifer Smith",
          "memberStatus": "1",
          "memberPassword": "********",
          "memberEmail": "x.pmory@vqviyp.mg",
          "memberRegister": "2001-09-11"
        },
        {
          "key": "KT",
          "id": "FFS",
          "memberName": "乔伟",
          "memberAccount": "Ronald Miller",
          "memberStatus": "2",
          "memberPassword": "********",
          "memberEmail": "n.bqse@eonxwqigv.tw",
          "memberRegister": "2014-05-21"
        },
        {
          "key": "2F",
          "id": "vlk",
          "memberName": "胡秀兰",
          "memberAccount": "Shirley Thomas",
          "memberStatus": "3",
          "memberPassword": "********",
          "memberEmail": "v.fhliawr@hdqlsacpv.ba",
          "memberRegister": "2006-10-10"
        },
        {
          "key": "VYA",
          "id": "1f",
          "memberName": "康洋",
          "memberAccount": "Jennifer Williams",
          "memberStatus": "2",
          "memberPassword": "********",
          "memberEmail": "s.ysukpt@ewsc.tm",
          "memberRegister": "2017-01-19"
        }
      ]
    }
  }