{
    "code": "0",
    "result": {
      "page": 1,
      "page_size": 10,
      "total_count": 60,
      "page_count": 6,
      "data": [
        {
          "key": "Fg2",
          "id": "5B",
          "memberName": "123孟平",
          "memberAccount": "Susan Clark",
          "memberStatus": "3",
          "memberPassword": "★★★★★★★★★",
          "memberEmail": "d.yrimnvlc@wlhe.gt",
          "memberRegister": "1990-06-24",
          "permission": "3",
          "upload": "https://www.placecage.com/200/200"
        }        
      ]
    }
  }