{
  "code": "0",
  "result": {
    "page": 1,
    "page_size": 10,
    "total_count": 60,
    "page_count": 6,
    "data": [
      {
        "key": "E9V",
        "id": ")xL",
        "name": "潘静",
        "login_start": "1979-03-03 04:08:02",
        "operating_time": "16mins",
        "ip_address": "192.168.1.91"
      },
      {
        "key": "p@",
        "id": "VrcJ",
        "name": "郭刚",
        "login_start": "2014-08-06 02:47:02",
        "operating_time": "20mins",
        "ip_address": "192.168.1.1"
      },
      {
        "key": "p1c",
        "id": "bUG",
        "name": "叶强",
        "login_start": "1980-01-18 14:33:36",
        "operating_time": "27mins",
        "ip_address": "192.168.1.4"
      },
      {
        "key": "7V",
        "id": "5kr",
        "name": "于敏",
        "login_start": "2015-05-07 02:35:41",
        "operating_time": "28mins",
        "ip_address": "192.168.1.4"
      },
      {
        "key": "S6m",
        "id": "K*",
        "name": "马超",
        "login_start": "1999-01-22 07:22:53",
        "operating_time": "21mins",
        "ip_address": "192.168.1.91"
      },
      {
        "key": "^o",
        "id": "c*W",
        "name": "李秀英",
        "login_start": "1987-08-14 21:52:14",
        "operating_time": "17mins",
        "ip_address": "192.168.1.4"
      },
      {
        "key": "ex",
        "id": "C6",
        "name": "金娟",
        "login_start": "1993-10-30 14:21:08",
        "operating_time": "19mins",
        "ip_address": "192.168.1.1"
      },
      {
        "key": "@",
        "id": "wg",
        "name": "于勇",
        "login_start": "1998-07-12 04:07:29",
        "operating_time": "15mins",
        "ip_address": "192.168.1.91"
      },
      {
        "key": "I",
        "id": "ko",
        "name": "叶娜",
        "login_start": "1990-11-09 09:20:42",
        "operating_time": "22mins",
        "ip_address": "192.168.1.4"
      },
      {
        "key": "SL",
        "id": "P[4W",
        "name": "汤刚",
        "login_start": "1974-02-19 20:56:00",
        "operating_time": "22mins",
        "ip_address": "192.168.1.4"
      }
    ]
  }
}