{
	"code": "0",
	"result": {
	  "page": 1,
	  "page_size": 10,
	  "total_count": 60,
	  "page_count": 6,
	  "data": [
		{
		  "key": "MJ",
		  "id": "HL(K",
		  "name": "易芳",
		  "date": "2007-07-16 07:39:48",
		  "types": "2",
		  "category": "2",
		  "amount": 4373,
		  "desc": "真值权很和复场在联务被并般厂后张且。少话研除同化其层号圆必口。"
		},
		{
		  "key": "@i",
		  "id": "SR2",
		  "name": "江丽",
		  "date": "2008-07-18 06:22:27",
		  "types": "2",
		  "category": "2",
		  "amount": 5338,
		  "desc": "展到特两由复验半回局积张划五干。"
		},
		{
		  "key": "oyK",
		  "id": "Vrwb",
		  "name": "刘娜",
		  "date": "1990-01-25 16:14:37",
		  "types": "2",
		  "category": "2",
		  "amount": 3538,
		  "desc": "克却问个队光教院者低厂满红。"
		},
		{
		  "key": "Sx",
		  "id": "hp",
		  "name": "王强",
		  "date": "2003-01-20 01:39:58",
		  "types": "1",
		  "category": "3",
		  "amount": 9428,
		  "desc": "光何据价分江体采本思局小己六满。温如几非却本应小强革院于效战。"
		},
		{
		  "key": "IY$F",
		  "id": "8#",
		  "name": "邹伟",
		  "date": "1984-09-19 12:44:30",
		  "types": "1",
		  "category": "2",
		  "amount": 6006,
		  "desc": "接解去区元装白置力条易月。我两自细听两示直斗气头我家属知。"
		}
	  ]
	}
  }