{
	"code": "0",
	"result": {
	  "page": 1,
	  "page_size": 10,
	  "total_count": 60,
	  "page_count": 6,
	  "data": [
		{
		  "key": "1",
		  "id": "eU*",
		  "name": "John Brown",
		  "login_start": "1971-02-06 12:55:59",
		  "operating_time": "36mins",
		  "ip_address": "192.168.1.1"
		}		
	  ]
	}
  }