{
    "code": "0",
    "result": {
      "page": 1,
      "page_size": 10,
      "total_count": 60,
      "page_count": 6,
      "data": [
        {
          "key": "@U*",
          "id": "RRb",
          "name": "11aPaul Young",
          "borrowNum": 201801011231,
          "borrowAmount": "1000000",
          "status": "1",
          "borrowPeriods": "24",
          "borrowInterest": "1",
          "borrowPayDate": "2018-10-06",
          "borrowRate": 1.88
        },
        {
          "key": "B%c",
          "id": "I3",
          "name": "Jeffrey Brown",
          "borrowNum": 201801011232,
          "borrowAmount": "300000",
          "status": "1",
          "borrowPeriods": "72",
          "borrowInterest": "1",
          "borrowPayDate": "2018-05-22",
          "borrowRate": 1.14
        },
        {
          "key": "^",
          "id": "aL",
          "name": "Donna Miller",
          "borrowNum": 201801011233,
          "borrowAmount": "1500000",
          "status": "1",
          "borrowPeriods": "12",
          "borrowInterest": "1",
          "borrowPayDate": "2018-02-26",
          "borrowRate": 1.75
        },
        {
          "key": "nvx",
          "id": "3%z",
          "name": "Angela Moore",
          "borrowNum": 201801011234,
          "borrowAmount": "800000",
          "status": "1",
          "borrowPeriods": "48",
          "borrowInterest": "1",
          "borrowPayDate": "2018-05-07",
          "borrowRate": 1.38
        },
        {
          "key": "Il",
          "id": "bH8",
          "name": "Susan White",
          "borrowNum": 201801011235,
          "borrowAmount": "1800000",
          "status": "1",
          "borrowPeriods": "24",
          "borrowInterest": "1",
          "borrowPayDate": "2018-12-10",
          "borrowRate": 0.15
        },
        {
          "key": "5",
          "id": "5",
          "name": "David Brown",
          "borrowNum": 201801011236,
          "borrowAmount": "1500000",
          "status": "1",
          "borrowPeriods": "48",
          "borrowInterest": "1",
          "borrowPayDate": "2018-07-11",
          "borrowRate": 0.66
        },
        {
          "key": "^8",
          "id": "9Gl",
          "name": "Kimberly Jones",
          "borrowNum": 201801011237,
          "borrowAmount": "200000",
          "status": "1",
          "borrowPeriods": "72",
          "borrowInterest": "1",
          "borrowPayDate": "2018-10-09",
          "borrowRate": 1.42
        },
        {
          "key": "^FA",
          "id": "tqqN",
          "name": "Carol Martinez",
          "borrowNum": 201801011238,
          "borrowAmount": "300000",
          "status": "1",
          "borrowPeriods": "48",
          "borrowInterest": "1",
          "borrowPayDate": "2018-04-29",
          "borrowRate": 0.91
        },
        {
          "key": "kYV",
          "id": "N",
          "name": "Patricia Lopez",
          "borrowNum": 201801011239,
          "borrowAmount": "200000",
          "status": "1",
          "borrowPeriods": "24",
          "borrowInterest": "1",
          "borrowPayDate": "2018-10-13",
          "borrowRate": 0.65
        },
        {
          "key": "Vt",
          "id": "eZN",
          "name": "Shirley Anderson",
          "borrowNum": 201801011240,
          "borrowAmount": "2000000",
          "status": "1",
          "borrowPeriods": "36",
          "borrowInterest": "1",
          "borrowPayDate": "2018-08-17",
          "borrowRate": 0.12
        },
        {
          "key": "h)",
          "id": "6Eg",
          "name": "Sharon Brown",
          "borrowNum": 201801011231,
          "borrowAmount": "300000",
          "status": "1",
          "borrowPeriods": "24",
          "borrowInterest": "1",
          "borrowPayDate": "2018-01-02",
          "borrowRate": 0.61
        },
        {
          "key": "(",
          "id": "1k",
          "name": "Larry Anderson",
          "borrowNum": 201801011232,
          "borrowAmount": "300000",
          "status": "1",
          "borrowPeriods": "60",
          "borrowInterest": "1",
          "borrowPayDate": "2018-07-01",
          "borrowRate": 1.23
        },
        {
          "key": "0z",
          "id": "V",
          "name": "Lisa White",
          "borrowNum": 201801011233,
          "borrowAmount": "1800000",
          "status": "1",
          "borrowPeriods": "60",
          "borrowInterest": "1",
          "borrowPayDate": "2018-11-18",
          "borrowRate": 0.38
        },
        {
          "key": "[*j",
          "id": "w7O",
          "name": "Mary Robinson",
          "borrowNum": 201801011234,
          "borrowAmount": "800000",
          "status": "1",
          "borrowPeriods": "60",
          "borrowInterest": "1",
          "borrowPayDate": "2018-08-12",
          "borrowRate": 0.12
        },
        {
          "key": "i*&]",
          "id": "QMt",
          "name": "Michael Harris",
          "borrowNum": 201801011235,
          "borrowAmount": "300000",
          "status": "1",
          "borrowPeriods": "72",
          "borrowInterest": "1",
          "borrowPayDate": "2018-07-30",
          "borrowRate": 1.76
        },
        {
          "key": "gX5",
          "id": "He",
          "name": "Paul Williams",
          "borrowNum": 201801011236,
          "borrowAmount": "1000000",
          "status": "1",
          "borrowPeriods": "36",
          "borrowInterest": "1",
          "borrowPayDate": "2018-11-18",
          "borrowRate": 0.74
        },
        {
          "key": "r4",
          "id": "6&O",
          "name": "Kimberly Anderson",
          "borrowNum": 201801011237,
          "borrowAmount": "500000",
          "status": "1",
          "borrowPeriods": "12",
          "borrowInterest": "1",
          "borrowPayDate": "2018-05-16",
          "borrowRate": 0.16
        },
        {
          "key": "0^F",
          "id": "V",
          "name": "Donald Johnson",
          "borrowNum": 201801011238,
          "borrowAmount": "1000000",
          "status": "1",
          "borrowPeriods": "60",
          "borrowInterest": "1",
          "borrowPayDate": "2018-10-19",
          "borrowRate": 0.22
        },
        {
          "key": "VNu",
          "id": "L",
          "name": "Jason Thomas",
          "borrowNum": 201801011239,
          "borrowAmount": "1500000",
          "status": "1",
          "borrowPeriods": "48",
          "borrowInterest": "1",
          "borrowPayDate": "2018-08-14",
          "borrowRate": 0.84
        },
        {
          "key": "V3V",
          "id": "t",
          "name": "Matthew Thompson",
          "borrowNum": 201801011240,
          "borrowAmount": "300000",
          "status": "1",
          "borrowPeriods": "36",
          "borrowInterest": "1",
          "borrowPayDate": "2018-10-21",
          "borrowRate": 1.12
        }
      ]
    }
  }