{
	"code": "0",
	"result": {
		"page": 1,
		"page_size": 10,
		"total_count": 60,
		"page_count": 6,
		"data": [
			{
				"num":"2",
				"line":"1",
				"title":"h2標題-1",
				"path":"1",
				"children":[
					{
						"num":"3",
						"line":"7",
						"title":"h3標題-7",
						"path":"7"
					},
					{
						"num":"3",
						"line":"25",
						"title":"h3標題-25",
						"path":"25",
						"children":[
							{				
								"num":"5",
								"line":"28",
								"title":"h5標題-28",
								"path":"28"
							}
						]
					}
				]
			},
			{				
				"num":"2",
				"line":"30",
				"title":"h2標題-30",
				"path":"30"
			}
		]
	}
}
	
